"('Error',)",malo
"('Keyword',)",malo
"('Comparison',)",malo
"('Single',)",malo
"('Error', 'Keyword')",malo
"('Keyword', 'Comparison')",malo
"('Comparison', 'Single')",malo
"('Error', 'Keyword', 'Comparison')",malo
"('Keyword', 'Comparison', 'Single')",malo
"('Single',)",malo
"('Identifier',)",malo
"('Float',)",malo
"('Float',)",malo
"('Float',)",malo
"('Error',)",malo
"('Single',)",malo
"('Single', 'Identifier')",malo
"('Identifier', 'Float')",malo
"('Float', 'Float')",malo
"('Float', 'Float')",malo
"('Float', 'Error')",malo
"('Error', 'Single')",malo
"('Single', 'Identifier', 'Float')",malo
"('Identifier', 'Float', 'Float')",malo
"('Float', 'Float', 'Float')",malo
"('Float', 'Float', 'Error')",malo
"('Float', 'Error', 'Single')",malo
"('Single',)",malo
"('Identifier',)",malo
"('Error',)",malo
"('Single',)",malo
"('Single', 'Identifier')",malo
"('Identifier', 'Error')",malo
"('Error', 'Single')",malo
"('Single', 'Identifier', 'Error')",malo
"('Identifier', 'Error', 'Single')",malo
"('Identifier',)",legitimo
"('Identifier',)",legitimo
"('Identifier',)",legitimo
"('Identifier', 'Identifier')",legitimo
