token,tipo
"('Error',)",malo
"('Keyword',)",malo
"('Comparison',)",malo
"('Single',)",malo
"('Error', 'Keyword')",malo
"('Keyword', 'Comparison')",malo
"('Comparison', 'Single')",malo
"('Error', 'Keyword', 'Comparison')",malo
"('Keyword', 'Comparison', 'Single')",malo
"('Error',)",malo
"('Keyword',)",malo
"('Parenthesis',)",malo
"('Single',)",malo
"('Identifier',)",legitimo
"('Parenthesis',)",legitimo
"('Keyword',)",legitimo
"('Keyword',)",legitimo
"('Single',)",legitimo